<svg width="44" height="44" viewBox="0 0 44 44" fill="none" xmlns="http://www.w3.org/2000/svg">
<g filter="url(#filter0_d)">
<circle cx="22" cy="21" r="21" fill="#FFDE58"/>
</g>
<path d="M13.76 28.198C12.68 28.198 11.756 28.03 10.988 27.694C10.22 27.346 9.632 26.884 9.224 26.308C8.828 25.732 8.618 25.108 8.594 24.436C8.594 24.328 8.63 24.238 8.702 24.166C8.774 24.094 8.864 24.058 8.972 24.058H11.384C11.66 24.058 11.852 24.172 11.96 24.4C12.284 25.204 12.89 25.606 13.778 25.606C14.306 25.606 14.75 25.444 15.11 25.12C15.482 24.784 15.668 24.322 15.668 23.734C15.668 23.206 15.488 22.774 15.128 22.438C14.78 22.102 14.33 21.934 13.778 21.934C13.466 21.934 13.214 21.976 13.022 22.06C12.842 22.132 12.656 22.24 12.464 22.384C12.26 22.54 12.098 22.618 11.978 22.618H9.62C9.512 22.618 9.416 22.582 9.332 22.51C9.26 22.426 9.224 22.33 9.224 22.222L9.872 15.94C9.884 15.772 9.944 15.64 10.052 15.544C10.172 15.448 10.31 15.4 10.466 15.4H17.684C17.816 15.4 17.924 15.442 18.008 15.526C18.104 15.61 18.152 15.718 18.152 15.85V17.542C18.152 17.674 18.104 17.782 18.008 17.866C17.924 17.95 17.816 17.992 17.684 17.992H12.464L12.23 20.314C12.53 20.11 12.86 19.96 13.22 19.864C13.58 19.756 14.048 19.702 14.624 19.702C15.38 19.702 16.094 19.876 16.766 20.224C17.438 20.56 17.972 21.04 18.368 21.664C18.776 22.288 18.98 23.002 18.98 23.806C18.98 24.658 18.77 25.42 18.35 26.092C17.93 26.752 17.324 27.268 16.532 27.64C15.752 28.012 14.828 28.198 13.76 28.198ZM25.7387 28.18C24.0827 28.168 22.8287 27.73 21.9767 26.866C21.1247 25.99 20.6627 24.844 20.5907 23.428C20.5667 22.78 20.5547 22.204 20.5547 21.7C20.5547 21.184 20.5667 20.59 20.5907 19.918C20.6387 19.018 20.8547 18.22 21.2387 17.524C21.6347 16.816 22.2107 16.258 22.9667 15.85C23.7227 15.43 24.6467 15.22 25.7387 15.22C27.3587 15.232 28.6067 15.67 29.4827 16.534C30.3587 17.398 30.8327 18.526 30.9047 19.918C30.9287 20.59 30.9407 21.184 30.9407 21.7C30.9407 22.204 30.9287 22.78 30.9047 23.428C30.8207 24.844 30.3527 25.99 29.5007 26.866C28.6487 27.73 27.3947 28.168 25.7387 28.18ZM25.7387 25.57C26.3267 25.57 26.7647 25.378 27.0527 24.994C27.3527 24.598 27.5147 24.046 27.5387 23.338C27.5627 22.99 27.5747 22.432 27.5747 21.664C27.5747 20.896 27.5627 20.35 27.5387 20.026C27.5147 19.342 27.3587 18.802 27.0707 18.406C26.7827 18.01 26.3387 17.806 25.7387 17.794C25.1507 17.806 24.7067 18.01 24.4067 18.406C24.1187 18.802 23.9627 19.342 23.9387 20.026C23.9267 20.35 23.9207 20.896 23.9207 21.664C23.9207 22.432 23.9267 22.99 23.9387 23.338C23.9987 24.826 24.5987 25.57 25.7387 25.57Z" fill="#F16334"/>
<path d="M32.603 20C32.537 20 32.48 19.979 32.432 19.937C32.39 19.895 32.369 19.841 32.369 19.775V19.136C32.369 18.956 32.444 18.809 32.594 18.695L33.53 17.777C34.076 17.357 34.49 17.03 34.772 16.796C35.054 16.562 35.267 16.349 35.411 16.157C35.555 15.965 35.627 15.782 35.627 15.608C35.627 15.134 35.393 14.897 34.925 14.897C34.679 14.897 34.49 14.972 34.358 15.122C34.226 15.266 34.139 15.449 34.097 15.671C34.061 15.809 33.959 15.878 33.791 15.878H32.666C32.612 15.878 32.567 15.86 32.531 15.824C32.495 15.788 32.477 15.743 32.477 15.689C32.489 15.305 32.594 14.954 32.792 14.636C32.996 14.312 33.281 14.057 33.647 13.871C34.019 13.679 34.445 13.583 34.925 13.583C35.429 13.583 35.861 13.664 36.221 13.826C36.581 13.988 36.854 14.216 37.04 14.51C37.226 14.804 37.319 15.146 37.319 15.536C37.319 15.956 37.187 16.34 36.923 16.688C36.665 17.03 36.269 17.402 35.735 17.804L34.907 18.641H37.22C37.286 18.641 37.34 18.662 37.382 18.704C37.43 18.746 37.454 18.8 37.454 18.866V19.775C37.454 19.841 37.43 19.895 37.382 19.937C37.34 19.979 37.286 20 37.22 20H32.603Z" fill="#3182CE"/>
<defs>
<filter id="filter0_d" x="0" y="0" width="44" height="44" filterUnits="userSpaceOnUse" color-interpolation-filters="sRGB">
<feFlood flood-opacity="0" result="BackgroundImageFix"/>
<feColorMatrix in="SourceAlpha" type="matrix" values="0 0 0 0 0 0 0 0 0 0 0 0 0 0 0 0 0 0 127 0" result="hardAlpha"/>
<feOffset dy="1"/>
<feGaussianBlur stdDeviation="0.5"/>
<feColorMatrix type="matrix" values="0 0 0 0 0 0 0 0 0 0 0 0 0 0 0 0 0 0 0.1 0"/>
<feBlend mode="normal" in2="BackgroundImageFix" result="effect1_dropShadow"/>
<feBlend mode="normal" in="SourceGraphic" in2="effect1_dropShadow" result="shape"/>
</filter>
</defs>
</svg>
